<?xml version="1.0" standalone="no"?>
<!DOCTYPE svg PUBLIC "-//W3C//DTD SVG 20010904//EN"
 "http://www.w3.org/TR/2001/REC-SVG-20010904/DTD/svg10.dtd">
<svg version="1.0" xmlns="http://www.w3.org/2000/svg"
 width="512.000000pt" height="512.000000pt" viewBox="0 0 512.000000 512.000000"
 preserveAspectRatio="xMidYMid meet">
<metadata>
Created by potrace 1.14, written by Peter Selinger 2001-2017
</metadata>
<g transform="translate(0.000000,512.000000) scale(0.100000,-0.100000)"
fill="#000000" stroke="none">
<path d="M2460 5043 c-150 -31 -268 -140 -321 -298 -10 -31 -13 -163 -15 -590
-1 -302 -2 -552 -3 -553 0 -2 -16 11 -35 30 -46 46 -549 535 -655 636 -137
132 -223 169 -370 159 -55 -3 -92 -12 -134 -32 l-59 -28 231 -231 c126 -127
400 -403 608 -613 l378 -383 793 0 792 0 56 53 c32 28 69 63 84 77 14 14 73
68 130 120 151 139 159 147 265 245 53 50 100 92 104 95 4 3 26 29 48 57 70
89 102 228 79 343 -22 114 -124 244 -230 294 -70 33 -83 36 -167 41 -81 5
-137 -7 -217 -46 -55 -27 -113 -81 -461 -430 -219 -219 -400 -399 -403 -399
-2 0 -3 53 -2 118 20 963 20 995 -5 1063 -77 205 -276 315 -491 272z"/>
<path d="M746 4233 c-62 -122 -55 -293 19 -418 27 -47 55 -76 426 -437 384
-373 379 -368 376 -369 -1 -1 -258 -2 -572 -4 -504 -3 -576 -5 -620 -20 -145
-49 -246 -156 -285 -304 -43 -161 37 -358 182 -452 114 -73 108 -73 703 -75
292 -1 536 -2 544 -3 7 0 -161 -175 -374 -388 -213 -213 -397 -403 -409 -423
-124 -198 -62 -467 134 -587 132 -81 306 -83 438 -5 24 14 92 73 151 133 58
59 213 215 344 348 l238 241 -2 757 -2 758 -333 335 c-183 184 -467 471 -632
638 -164 166 -301 302 -305 302 -3 0 -13 -12 -21 -27z"/>
<path d="M2171 3010 c-3 -3 -7 -122 -8 -265 -1 -143 -4 -561 -7 -930 -9 -1140
-9 -1378 4 -1426 40 -146 153 -263 295 -305 90 -26 212 -16 297 24 119 58 215
181 235 307 5 28 9 296 8 598 0 301 1 547 3 547 2 0 29 -26 59 -57 120 -125
650 -668 683 -700 48 -47 144 -92 224 -106 181 -31 371 71 448 240 56 123 49
277 -18 391 -16 27 -185 205 -409 429 -210 210 -380 385 -378 387 3 3 80 5
171 6 92 1 244 4 337 6 654 14 598 10 693 54 116 54 213 186 230 316 11 78 -7
183 -42 252 -51 100 -164 192 -276 223 -35 10 -326 13 -1293 13 -687 1 -1252
-1 -1256 -4z"/>
</g>
</svg>
